EESchema Schematic File Version 5
EELAYER 30 0
EELAYER END
$Descr A4 11693 8268
encoding utf-8
Sheet 1 1
Title ""
Date ""
Rev ""
Comp ""
Comment1 ""
Comment2 ""
Comment3 ""
Comment4 ""
Comment5 ""
Comment6 ""
Comment7 ""
Comment8 ""
Comment9 ""
$EndDescr
$Comp
L lt1028:LT1028 U2
U 1 1 613699D8
P 2850 5125
F 0 "U2" H 3000 4950 50  0000 L CNN
F 1 "LT1028" H 2900 5250 50  0000 L CNN
F 2 "Package_SO:SOIC-8_3.9x4.9mm_P1.27mm" H 2900 5175 50  0001 C CNN
F 3 "http://www.ti.com/lit/ds/symlink/ne5534.pdf" H 2900 5275 50  0001 C CNN
	1    2850 5125
	1    0    0    1   
$EndComp
$Comp
L lt1028:LT1028 U1
U 1 1 6136A036
P 5850 3325
F 0 "U1" H 5950 3475 50  0000 L CNN
F 1 "LT1028" H 5975 3225 50  0000 L CNN
F 2 "Package_SO:SOIC-8_3.9x4.9mm_P1.27mm" H 5900 3375 50  0001 C CNN
F 3 "http://www.ti.com/lit/ds/symlink/ne5534.pdf" H 5900 3475 50  0001 C CNN
	1    5850 3325
	1    0    0    -1  
$EndComp
$Comp
L Amplifier_Operational:OPA1641 U3
U 1 1 6136B103
P 5950 5150
F 0 "U3" H 5950 5150 50  0000 C CNN
F 1 "OPA1641" H 6100 5000 50  0000 C CNN
F 2 "Package_SO:SOIC-8_3.9x4.9mm_P1.27mm" H 5950 5150 50  0001 C CNN
F 3 "http://www.ti.com/lit/ds/symlink/opa1641.pdf" H 5950 5150 50  0001 C CNN
	1    5950 5150
	-1   0    0    1   
$EndComp
$Comp
L Device:Q_NJFET_DSG QJ1
U 1 1 6136BCC9
P 4000 2725
F 0 "QJ1" H 4025 2725 50  0000 L CNN
F 1 "LSK189" H 4200 2725 50  0000 L CNN
F 2 "Package_TO_SOT_SMD:SOT-23_Handsoldering" H 4200 2825 50  0001 C CNN
F 3 "~" H 4000 2725 50  0001 C CNN
	1    4000 2725
	1    0    0    -1  
$EndComp
$Comp
L Device:R R70
U 1 1 6137B0ED
P 3425 5125
F 0 "R70" V 3218 5125 50  0000 C CNN
F 1 "49.9Ω" V 3309 5125 50  0000 C CNN
F 2 "Resistor_SMD:R_0805_2012Metric_Pad1.15x1.40mm_HandSolder" V 3355 5125 50  0001 C CNN
F 3 "~" H 3425 5125 50  0001 C CNN
	1    3425 5125
	0    1    1    0   
$EndComp
$Comp
L Device:C C7
U 1 1 6137B6A8
P 6100 4250
F 0 "C7" V 6025 4125 50  0000 C CNN
F 1 "100nF S-CAP" V 6225 4100 50  0000 C CNN
F 2 "Capacitor_SMD:C_1812_4532Metric_Pad1.30x3.40mm_HandSolder" H 6138 4100 50  0001 C CNN
F 3 "~" H 6100 4250 50  0001 C CNN
	1    6100 4250
	0    1    1    0   
$EndComp
$Comp
L Device:Q_NPN_EBC Q1
U 1 1 6137C2E8
P 4700 2950
F 0 "Q1" H 4650 3125 50  0000 L CNN
F 1 "2N5089" H 4350 3000 50  0000 L CNN
F 2 "Package_TO_SOT_THT:TO-92L_HandSolder" H 4900 3050 50  0001 C CNN
F 3 "~" H 4700 2950 50  0001 C CNN
	1    4700 2950
	1    0    0    -1  
$EndComp
$Comp
L Device:R R11
U 1 1 61388D4B
P 3525 2975
F 0 "R11" H 3595 3021 50  0000 L CNN
F 1 "10KΩ" H 3595 2930 50  0000 L CNN
F 2 "Resistor_SMD:R_0805_2012Metric_Pad1.15x1.40mm_HandSolder" V 3455 2975 50  0001 C CNN
F 3 "~" H 3525 2975 50  0001 C CNN
	1    3525 2975
	1    0    0    -1  
$EndComp
$Comp
L Device:R R12
U 1 1 6138F1C4
P 3425 3625
F 0 "R12" H 3355 3579 50  0000 R CNN
F 1 "16.9KΩ" H 3355 3670 50  0000 R CNN
F 2 "Resistor_SMD:R_0805_2012Metric_Pad1.15x1.40mm_HandSolder" V 3355 3625 50  0001 C CNN
F 3 "~" H 3425 3625 50  0001 C CNN
	1    3425 3625
	1    0    0    1   
$EndComp
$Comp
L Device:R R1
U 1 1 6139022B
P 4100 3625
F 0 "R1" H 4170 3671 50  0000 L CNN
F 1 "8.45KΩ" H 4170 3580 50  0000 L CNN
F 2 "Resistor_SMD:R_0805_2012Metric_Pad1.15x1.40mm_HandSolder" V 4030 3625 50  0001 C CNN
F 3 "~" H 4100 3625 50  0001 C CNN
	1    4100 3625
	1    0    0    -1  
$EndComp
$Comp
L Device:C C6
U 1 1 613940CF
P 3700 3625
F 0 "C6" H 3815 3671 50  0000 L CNN
F 1 "100nF" H 3815 3580 50  0000 L CNN
F 2 "Capacitor_SMD:C_1206_3216Metric_Pad1.42x1.75mm_HandSolder" H 3738 3475 50  0001 C CNN
F 3 "~" H 3700 3625 50  0001 C CNN
	1    3700 3625
	1    0    0    -1  
$EndComp
Text GLabel 3025 3800 0    50   Input ~ 0
V-22
Wire Wire Line
	3025 3800 3075 3800
Wire Wire Line
	3700 3800 3700 3775
Wire Wire Line
	3425 3775 3425 3800
Connection ~ 3425 3800
Wire Wire Line
	3425 3800 3700 3800
Wire Wire Line
	4100 3800 4100 3775
Connection ~ 3700 3800
$Comp
L lsk489:Q_NJFET_DSG QJ23
U 1 1 6137420D
P 4000 2225
F 0 "QJ23" H 3850 2400 50  0000 L CNN
F 1 "LSK489 dual JFET" H 3600 2475 50  0000 L CNN
F 2 "Package_TO_SOT_SMD:SOT-23-6_Handsoldering" H 4200 2325 50  0001 C CNN
F 3 "~" H 4000 2225 50  0001 C CNN
	1    4000 2225
	1    0    0    -1  
$EndComp
Text Notes 4050 3250 0    51   ~ 0
J2 (LTspice)\n\n\n\n\n\n\n\n\n\n\n\nJ3 (LTspice)
Wire Wire Line
	3425 3475 3525 3475
Wire Wire Line
	3525 3125 3525 3225
Connection ~ 3525 3475
Wire Wire Line
	3525 3475 3700 3475
Wire Wire Line
	3800 3225 3525 3225
Connection ~ 3525 3225
Wire Wire Line
	3525 3225 3525 3475
Wire Wire Line
	4100 3425 4100 3475
$Comp
L Device:R R10
U 1 1 613BF2DB
P 3525 2075
F 0 "R10" H 3455 2029 50  0000 R CNN
F 1 "16.9KΩ" H 3455 2120 50  0000 R CNN
F 2 "Resistor_SMD:R_0805_2012Metric_Pad1.15x1.40mm_HandSolder" V 3455 2075 50  0001 C CNN
F 3 "~" H 3525 2075 50  0001 C CNN
	1    3525 2075
	1    0    0    1   
$EndComp
Wire Wire Line
	3525 2225 3525 2300
Wire Wire Line
	3800 2225 3525 2225
Connection ~ 3525 2225
Wire Wire Line
	4100 2425 4100 2525
Wire Wire Line
	4100 2925 4100 2950
Wire Wire Line
	4500 2950 4100 2950
Connection ~ 4100 2950
Wire Wire Line
	4100 2950 4100 3025
Wire Wire Line
	3425 2300 3525 2300
Connection ~ 3525 2300
$Comp
L Connector:Conn_01x01_Female J1
U 1 1 613C6EA1
P 2650 2725
F 0 "J1" H 2625 2875 50  0000 L CNN
F 1 "i" H 2700 2750 100 0000 L CNN
F 2 "Connector_Pin:Pin_D0.9mm_L10.0mm_W2.4mm_FlatFork" H 2650 2725 50  0001 C CNN
F 3 "~" H 2650 2725 50  0001 C CNN
	1    2650 2725
	-1   0    0    -1  
$EndComp
$Comp
L Connector:Conn_01x01_Female J2
U 1 1 613C78FA
P 2650 2975
F 0 "J2" H 2675 3100 50  0000 C CNN
F 1 "r" H 2725 3000 100 0000 C CNN
F 2 "Connector_Pin:Pin_D0.9mm_L10.0mm_W2.4mm_FlatFork" H 2650 2975 50  0001 C CNN
F 3 "~" H 2650 2975 50  0001 C CNN
	1    2650 2975
	-1   0    0    -1  
$EndComp
Wire Wire Line
	2850 2975 2850 2725
Connection ~ 2850 2725
Wire Wire Line
	3525 2300 3525 2825
Wire Wire Line
	2850 2725 3700 2725
Text GLabel 2525 1925 0    50   Input ~ 0
V+22
Wire Wire Line
	2525 1925 2725 1925
Wire Wire Line
	3525 1925 4100 1925
Wire Wire Line
	4100 1925 4100 2025
Connection ~ 3525 1925
$Comp
L Device:D_Zener_ALT D71
U 1 1 613D0D63
P 5325 2075
F 0 "D71" V 5279 2155 50  0000 L CNN
F 1 "22V 1W" V 5370 2155 50  0000 L CNN
F 2 "Diode_SMD:D_SMA" H 5325 2075 50  0001 C CNN
F 3 "~" H 5325 2075 50  0001 C CNN
	1    5325 2075
	0    1    1    0   
$EndComp
Wire Wire Line
	5325 1925 4975 1925
Connection ~ 4100 1925
Wire Wire Line
	4800 2750 4800 1925
Connection ~ 4800 1925
Wire Wire Line
	4800 1925 4100 1925
$Comp
L Device:R R2
U 1 1 613D2E59
P 4800 3625
F 0 "R2" H 4870 3671 50  0000 L CNN
F 1 "1KΩ" H 4870 3580 50  0000 L CNN
F 2 "Resistor_SMD:R_0805_2012Metric_Pad1.15x1.40mm_HandSolder" V 4730 3625 50  0001 C CNN
F 3 "~" H 4800 3625 50  0001 C CNN
	1    4800 3625
	1    0    0    -1  
$EndComp
Wire Wire Line
	4800 3475 4800 3225
Wire Wire Line
	4100 3800 4600 3800
Wire Wire Line
	4800 3800 4800 3775
Connection ~ 4100 3800
$Comp
L power:GND #PWR0102
U 1 1 613D9D9F
P 5325 2250
F 0 "#PWR0102" H 5325 2000 50  0001 C CNN
F 1 "GND" H 5330 2077 50  0000 C CNN
F 2 "" H 5325 2250 50  0001 C CNN
F 3 "" H 5325 2250 50  0001 C CNN
	1    5325 2250
	1    0    0    -1  
$EndComp
Wire Wire Line
	5325 2250 5325 2225
Wire Wire Line
	4600 4125 4600 4100
$Comp
L Device:D_Zener_ALT D70
U 1 1 613DA56D
P 4600 3950
F 0 "D70" V 4554 4030 50  0000 L CNN
F 1 "22V 1W" V 4645 4030 50  0000 L CNN
F 2 "Diode_SMD:D_SMA" H 4600 3950 50  0001 C CNN
F 3 "~" H 4600 3950 50  0001 C CNN
	1    4600 3950
	0    1    1    0   
$EndComp
$Comp
L power:GND #PWR0103
U 1 1 613DA57A
P 4600 4125
F 0 "#PWR0103" H 4600 3875 50  0001 C CNN
F 1 "GND" H 4605 3952 50  0000 C CNN
F 2 "" H 4600 4125 50  0001 C CNN
F 3 "" H 4600 4125 50  0001 C CNN
	1    4600 4125
	1    0    0    -1  
$EndComp
Connection ~ 4600 3800
Wire Wire Line
	4600 3800 4800 3800
$Comp
L power:GND #PWR0104
U 1 1 613E09C3
P 3875 4125
F 0 "#PWR0104" H 3875 3875 50  0001 C CNN
F 1 "GND" H 3880 3952 50  0000 C CNN
F 2 "" H 3875 4125 50  0001 C CNN
F 3 "" H 3875 4125 50  0001 C CNN
	1    3875 4125
	1    0    0    -1  
$EndComp
$Comp
L power:GND #PWR0105
U 1 1 613E3A8A
P 6525 2250
F 0 "#PWR0105" H 6525 2000 50  0001 C CNN
F 1 "GND" H 6530 2077 50  0000 C CNN
F 2 "" H 6525 2250 50  0001 C CNN
F 3 "" H 6525 2250 50  0001 C CNN
	1    6525 2250
	1    0    0    -1  
$EndComp
Wire Wire Line
	6525 2250 6525 2225
Wire Wire Line
	6525 1925 5750 1925
Connection ~ 5325 1925
Connection ~ 3875 3800
Wire Wire Line
	3875 4125 3875 4100
Wire Wire Line
	3875 3800 4100 3800
Wire Wire Line
	3700 3800 3875 3800
$Comp
L Device:R R4
U 1 1 613F636E
P 5475 3600
F 0 "R4" H 5625 3650 50  0000 R CNN
F 1 "24.9Ω" H 5750 3550 50  0000 R CNN
F 2 "Resistor_SMD:R_0805_2012Metric_Pad1.15x1.40mm_HandSolder" V 5405 3600 50  0001 C CNN
F 3 "~" H 5475 3600 50  0001 C CNN
	1    5475 3600
	-1   0    0    -1  
$EndComp
Wire Wire Line
	5475 3825 5475 3750
$Comp
L power:GND #PWR0106
U 1 1 6140474B
P 5475 3825
F 0 "#PWR0106" H 5475 3575 50  0001 C CNN
F 1 "GND" H 5480 3652 50  0000 C CNN
F 2 "" H 5475 3825 50  0001 C CNN
F 3 "" H 5475 3825 50  0001 C CNN
	1    5475 3825
	1    0    0    -1  
$EndComp
$Comp
L Device:R R5
U 1 1 61406947
P 6100 2850
F 0 "R5" V 5893 2850 50  0000 C CNN
F 1 "1KΩ" V 5984 2850 50  0000 C CNN
F 2 "Resistor_SMD:R_0805_2012Metric_Pad1.15x1.40mm_HandSolder" V 6030 2850 50  0001 C CNN
F 3 "~" H 6100 2850 50  0001 C CNN
	1    6100 2850
	0    1    1    0   
$EndComp
$Comp
L Device:C C3
U 1 1 6140FCC5
P 6075 2475
F 0 "C3" V 5823 2475 50  0000 C CNN
F 1 "47pF" V 5914 2475 50  0000 C CNN
F 2 "Capacitor_SMD:C_0805_2012Metric_Pad1.15x1.40mm_HandSolder" H 6113 2325 50  0001 C CNN
F 3 "~" H 6075 2475 50  0001 C CNN
	1    6075 2475
	0    1    1    0   
$EndComp
$Comp
L Device:R R76
U 1 1 614182AD
P 6400 3000
F 0 "R76" V 6193 3000 50  0000 C CNN
F 1 "49.9Ω" V 6284 3000 50  0000 C CNN
F 2 "Resistor_SMD:R_0805_2012Metric_Pad1.15x1.40mm_HandSolder" V 6330 3000 50  0001 C CNN
F 3 "~" H 6400 3000 50  0001 C CNN
	1    6400 3000
	0    1    1    0   
$EndComp
$Comp
L Device:R R3
U 1 1 6142BB93
P 5200 3225
F 0 "R3" V 5200 3200 50  0000 C CNN
F 1 "10Ω" V 5300 3225 50  0000 C CNN
F 2 "Resistor_SMD:R_0805_2012Metric_Pad1.15x1.40mm_HandSolder" V 5130 3225 50  0001 C CNN
F 3 "~" H 5200 3225 50  0001 C CNN
	1    5200 3225
	0    1    1    0   
$EndComp
Wire Wire Line
	5075 3225 5050 3225
Connection ~ 4800 3225
Wire Wire Line
	4800 3225 4800 3150
Connection ~ 5050 3225
Wire Wire Line
	5050 3225 4800 3225
Wire Wire Line
	5350 3225 5550 3225
Wire Wire Line
	5550 3425 5475 3425
Wire Wire Line
	5475 3425 5475 3450
Wire Wire Line
	5475 3425 5475 2850
Connection ~ 5475 3425
Wire Wire Line
	5925 2475 5925 2850
Connection ~ 5925 2850
Wire Wire Line
	5925 2850 5950 2850
Wire Wire Line
	6250 3000 6250 2850
Wire Wire Line
	6250 2475 6225 2475
Connection ~ 6250 2850
Wire Wire Line
	6250 2850 6250 2475
Wire Wire Line
	6150 3325 6250 3325
Wire Wire Line
	6250 3325 6250 3000
Connection ~ 6250 3000
$Comp
L Connector:Conn_01x01_Female J5
U 1 1 61439747
P 6800 3000
F 0 "J5" H 6700 3075 50  0000 L CNN
F 1 "a" H 6825 3025 100 0000 L CNN
F 2 "Connector_Pin:Pin_D0.9mm_L10.0mm_W2.4mm_FlatFork" H 6800 3000 50  0001 C CNN
F 3 "~" H 6800 3000 50  0001 C CNN
	1    6800 3000
	1    0    0    -1  
$EndComp
$Comp
L Device:R R6
U 1 1 6143D231
P 6250 3700
F 0 "R6" H 6320 3746 50  0000 L CNN
F 1 "200MΩ" H 6320 3655 50  0000 L CNN
F 2 "Resistor_SMD:R_0805_2012Metric_Pad1.15x1.40mm_HandSolder" V 6180 3700 50  0001 C CNN
F 3 "~" H 6250 3700 50  0001 C CNN
	1    6250 3700
	1    0    0    -1  
$EndComp
Wire Wire Line
	6250 3550 6250 3325
Connection ~ 6250 3325
Connection ~ 5750 1925
Wire Wire Line
	5750 1925 5325 1925
Wire Wire Line
	5475 2850 5925 2850
Text GLabel 6375 4950 2    50   Input ~ 0
2
Wire Wire Line
	6375 4950 6250 4950
Connection ~ 6250 4950
Wire Wire Line
	6250 4950 6250 5050
$Comp
L Device:C C1
U 1 1 6144B82F
P 5925 4675
F 0 "C1" V 5875 4575 50  0000 C CNN
F 1 "10pF" V 5800 4725 50  0000 C CNN
F 2 "Capacitor_SMD:C_0805_2012Metric_Pad1.15x1.40mm_HandSolder" H 5963 4525 50  0001 C CNN
F 3 "~" H 5925 4675 50  0001 C CNN
	1    5925 4675
	0    1    1    0   
$EndComp
Wire Wire Line
	6075 4675 6250 4675
Connection ~ 6250 4675
Wire Wire Line
	6250 4675 6250 4950
Wire Wire Line
	5775 4675 5525 4675
Wire Wire Line
	5525 4675 5525 5150
Text GLabel 5475 5150 0    50   Input ~ 0
A
Wire Wire Line
	5475 5150 5525 5150
Connection ~ 5525 5150
Wire Wire Line
	6600 3000 6550 3000
Text Notes 6175 5150 0    50   ~ 0
integrator
Wire Wire Line
	6250 5275 6250 5250
$Comp
L power:GND #PWR0107
U 1 1 61458527
P 6250 5275
F 0 "#PWR0107" H 6250 5025 50  0001 C CNN
F 1 "GND" H 6255 5102 50  0000 C CNN
F 2 "" H 6250 5275 50  0001 C CNN
F 3 "" H 6250 5275 50  0001 C CNN
	1    6250 5275
	1    0    0    -1  
$EndComp
Wire Wire Line
	5950 4250 5875 4250
Text GLabel 5850 4075 0    50   Input ~ 0
3
Wire Wire Line
	5850 4075 5875 4075
Wire Wire Line
	5875 4075 5875 4250
Connection ~ 5875 4250
Wire Wire Line
	5875 4250 5825 4250
Wire Wire Line
	5525 4250 5525 4675
Connection ~ 5525 4675
Wire Wire Line
	5525 5150 5650 5150
Wire Wire Line
	4800 3800 5750 3800
Wire Wire Line
	5750 3800 5750 3625
Connection ~ 4800 3800
$Comp
L Connector:Conn_01x03_Female J4
U 1 1 61475C6E
P 3575 5700
F 0 "J4" H 3467 5985 50  0000 C CNN
F 1 "Fluxor" H 3467 5894 50  0000 C CNN
F 2 "Connector_PinHeader_1.00mm:PinHeader_1x03_P1.00mm_Vertical" H 3575 5700 50  0001 C CNN
F 3 "~" H 3575 5700 50  0001 C CNN
	1    3575 5700
	-1   0    0    -1  
$EndComp
Text GLabel 3750 2600 2    50   Input ~ 0
G
Wire Wire Line
	3750 2600 3700 2600
Wire Wire Line
	3700 2600 3700 2725
Connection ~ 3700 2725
Wire Wire Line
	3700 2725 3800 2725
$Comp
L Connector:Conn_01x01_Female J3
U 1 1 61486080
P 3825 5125
F 0 "J3" H 3750 5200 50  0000 L CNN
F 1 "b" H 3900 5125 100 0000 L CNN
F 2 "Connector_Pin:Pin_D0.9mm_L10.0mm_W2.4mm_FlatFork" H 3825 5125 50  0001 C CNN
F 3 "~" H 3825 5125 50  0001 C CNN
	1    3825 5125
	1    0    0    -1  
$EndComp
Wire Wire Line
	3625 5125 3575 5125
Wire Wire Line
	3275 5125 3175 5125
$Comp
L Device:C C70
U 1 1 61488B29
P 2775 4425
F 0 "C70" V 2625 4425 50  0000 C CNN
F 1 "47pF" V 2925 4425 50  0000 C CNN
F 2 "Capacitor_SMD:C_0805_2012Metric_Pad1.15x1.40mm_HandSolder" H 2813 4275 50  0001 C CNN
F 3 "~" H 2775 4425 50  0001 C CNN
	1    2775 4425
	0    1    1    0   
$EndComp
$Comp
L power:GND #PWR0108
U 1 1 6148EB9A
P 2500 5275
F 0 "#PWR0108" H 2500 5025 50  0001 C CNN
F 1 "GND" H 2505 5102 50  0000 C CNN
F 2 "" H 2500 5275 50  0001 C CNN
F 3 "" H 2500 5275 50  0001 C CNN
	1    2500 5275
	1    0    0    -1  
$EndComp
Wire Wire Line
	2500 5275 2500 5225
Wire Wire Line
	2500 5225 2550 5225
$Comp
L Device:R R7
U 1 1 6148F5B5
P 2325 5025
F 0 "R7" V 2118 5025 50  0000 C CNN
F 1 "1KΩ" V 2209 5025 50  0000 C CNN
F 2 "Resistor_SMD:R_0805_2012Metric_Pad1.15x1.40mm_HandSolder" V 2255 5025 50  0001 C CNN
F 3 "~" H 2325 5025 50  0001 C CNN
	1    2325 5025
	0    1    1    0   
$EndComp
Text GLabel 2125 5025 0    50   Input ~ 0
out
Wire Wire Line
	2125 5025 2175 5025
Wire Wire Line
	2550 5025 2475 5025
Wire Wire Line
	2550 5025 2550 4700
Wire Wire Line
	2550 4425 2625 4425
Connection ~ 2550 5025
Connection ~ 2550 4700
Wire Wire Line
	2550 4700 2550 4425
Wire Wire Line
	2925 4425 3175 4425
Connection ~ 3175 5125
Wire Wire Line
	3175 5125 3150 5125
Text GLabel 6425 3325 2    50   Input ~ 0
out
Wire Wire Line
	6425 3325 6250 3325
$Comp
L Device:R_POT_TRIM RV72
U 1 1 614976BC
P 2850 5725
F 0 "RV72" H 2780 5771 50  0000 R CNN
F 1 "1KΩPOT" H 2780 5680 50  0000 R CNN
F 2 "Potentiometer_THT:Potentiometer_Vishay_T7-YA_Single_Vertical" H 2850 5725 50  0001 C CNN
F 3 "https://www.mouser.com/datasheet/2/54/3362-776956.pdf" H 2850 5725 50  0001 C CNN
F 4 "652-3362P-1-102LF" H 2850 5725 50  0001 C CNN "Field4"
	1    2850 5725
	-1   0    0    -1  
$EndComp
Wire Wire Line
	2850 5600 2850 5575
Connection ~ 2850 5575
Wire Wire Line
	2850 5575 2850 5425
Wire Wire Line
	2750 5425 2700 5425
Wire Wire Line
	2700 5425 2700 5725
Text GLabel 2575 5725 0    50   Input ~ 0
V+22
Wire Wire Line
	2575 5725 2700 5725
Connection ~ 2700 5725
Wire Wire Line
	2850 5875 2925 5875
Wire Wire Line
	2925 5875 2925 5500
Wire Wire Line
	2925 5500 2875 5500
Wire Wire Line
	2875 5500 2875 4825
Wire Wire Line
	2875 4825 2850 4825
NoConn ~ 2950 4825
Text GLabel 2275 4725 0    50   Input ~ 0
V-22
Wire Wire Line
	2275 4725 2750 4825
Wire Wire Line
	3175 4425 3175 4700
$Comp
L Device:R R71
U 1 1 61486E46
P 3025 4700
F 0 "R71" V 3025 4700 50  0000 C CNN
F 1 "1KΩ" V 2925 4700 50  0000 C CNN
F 2 "Resistor_SMD:R_0805_2012Metric_Pad1.15x1.40mm_HandSolder" V 2955 4700 50  0001 C CNN
F 3 "~" H 3025 4700 50  0001 C CNN
	1    3025 4700
	0    1    1    0   
$EndComp
Connection ~ 3175 4700
Wire Wire Line
	3175 4700 3175 5125
Wire Wire Line
	2875 4700 2550 4700
$Comp
L Device:C C73
U 1 1 614BAFCF
P 4975 2075
F 0 "C73" H 5050 1975 50  0000 C CNN
F 1 "100nF" H 4825 2175 50  0000 C CNN
F 2 "Capacitor_SMD:C_1206_3216Metric_Pad1.42x1.75mm_HandSolder" H 5013 1925 50  0001 C CNN
F 3 "~" H 4975 2075 50  0001 C CNN
	1    4975 2075
	-1   0    0    1   
$EndComp
Connection ~ 4975 1925
Wire Wire Line
	4975 1925 4800 1925
Wire Wire Line
	4975 2250 4975 2225
$Comp
L power:GND #PWR0101
U 1 1 614BFA46
P 4975 2250
F 0 "#PWR0101" H 4975 2000 50  0001 C CNN
F 1 "GND" H 4980 2077 50  0000 C CNN
F 2 "" H 4975 2250 50  0001 C CNN
F 3 "" H 4975 2250 50  0001 C CNN
	1    4975 2250
	1    0    0    -1  
$EndComp
$Comp
L Device:R R80
U 1 1 614C9E9E
P 5900 5600
F 0 "R80" H 5970 5646 50  0000 L CNN
F 1 "1.5KΩ" H 5970 5555 50  0000 L CNN
F 2 "Resistor_THT:R_Axial_DIN0207_L6.3mm_D2.5mm_P15.24mm_Horizontal" V 5830 5600 50  0001 C CNN
F 3 "~" H 5900 5600 50  0001 C CNN
	1    5900 5600
	1    0    0    -1  
$EndComp
$Comp
L power:GND #PWR0109
U 1 1 614D880B
P 5475 5750
F 0 "#PWR0109" H 5475 5500 50  0001 C CNN
F 1 "GND" H 5480 5577 50  0000 C CNN
F 2 "" H 5475 5750 50  0001 C CNN
F 3 "" H 5475 5750 50  0001 C CNN
	1    5475 5750
	1    0    0    -1  
$EndComp
Text GLabel 6075 5750 2    50   Input ~ 0
V+22
Wire Wire Line
	6075 5750 5900 5750
Wire Wire Line
	6050 5450 5900 5450
Connection ~ 5900 5450
Wire Wire Line
	5900 5450 5475 5450
$Comp
L Device:D_Zener_ALT D80
U 1 1 614E01C6
P 5100 5600
F 0 "D80" V 4975 5425 50  0000 L CNN
F 1 "16.5V zener" V 5225 5375 50  0000 L CNN
F 2 "Diode_SMD:D_SOD-323_HandSoldering" H 5100 5600 50  0001 C CNN
F 3 "~" H 5100 5600 50  0001 C CNN
	1    5100 5600
	0    1    1    0   
$EndComp
$Comp
L power:GND #PWR0110
U 1 1 614E0A20
P 5100 5750
F 0 "#PWR0110" H 5100 5500 50  0001 C CNN
F 1 "GND" H 5105 5577 50  0000 C CNN
F 2 "" H 5100 5750 50  0001 C CNN
F 3 "" H 5100 5750 50  0001 C CNN
	1    5100 5750
	1    0    0    -1  
$EndComp
Wire Wire Line
	5100 5450 5475 5450
Connection ~ 5475 5450
$Comp
L power:GND #PWR0111
U 1 1 614E4930
P 5500 6425
F 0 "#PWR0111" H 5500 6175 50  0001 C CNN
F 1 "GND" H 5505 6252 50  0000 C CNN
F 2 "" H 5500 6425 50  0001 C CNN
F 3 "" H 5500 6425 50  0001 C CNN
	1    5500 6425
	1    0    0    -1  
$EndComp
Text GLabel 6100 6425 2    50   Input ~ 0
V-22
Wire Wire Line
	5125 6125 5500 6125
$Comp
L power:GND #PWR0112
U 1 1 614E493F
P 5125 6425
F 0 "#PWR0112" H 5125 6175 50  0001 C CNN
F 1 "GND" H 5130 6252 50  0000 C CNN
F 2 "" H 5125 6425 50  0001 C CNN
F 3 "" H 5125 6425 50  0001 C CNN
	1    5125 6425
	1    0    0    -1  
$EndComp
Connection ~ 5500 6125
$Comp
L Device:D_Zener_ALT D81
U 1 1 614E494E
P 5125 6275
F 0 "D81" V 5225 6375 50  0000 L CNN
F 1 "16.5V zener" V 5025 6050 50  0000 L CNN
F 2 "Diode_SMD:D_SOD-323_HandSoldering" H 5125 6275 50  0001 C CNN
F 3 "~" H 5125 6275 50  0001 C CNN
	1    5125 6275
	0    -1   -1   0   
$EndComp
$Comp
L Device:C C81
U 1 1 614E495C
P 5500 6275
F 0 "C81" H 5575 6175 50  0000 C CNN
F 1 "100nF" H 5350 6375 50  0000 C CNN
F 2 "Capacitor_SMD:C_1206_3216Metric_Pad1.42x1.75mm_HandSolder" H 5538 6125 50  0001 C CNN
F 3 "~" H 5500 6275 50  0001 C CNN
	1    5500 6275
	-1   0    0    1   
$EndComp
Wire Wire Line
	6100 6425 5925 6425
$Comp
L Device:R R81
U 1 1 614E496B
P 5925 6275
F 0 "R81" H 5995 6321 50  0000 L CNN
F 1 "1.5KΩ" H 5995 6230 50  0000 L CNN
F 2 "Resistor_THT:R_Axial_DIN0207_L6.3mm_D2.5mm_P15.24mm_Horizontal" V 5855 6275 50  0001 C CNN
F 3 "~" H 5925 6275 50  0001 C CNN
	1    5925 6275
	1    0    0    -1  
$EndComp
Wire Wire Line
	5925 6125 5500 6125
Wire Wire Line
	6050 4850 4725 4850
Wire Wire Line
	4725 4850 4725 6125
Wire Wire Line
	4725 6125 5125 6125
Connection ~ 5125 6125
$Comp
L Device:CP C71
U 1 1 613E3A98
P 6525 2075
F 0 "C71" H 6643 2121 50  0000 L CNN
F 1 "22uF 25V" H 6643 2030 50  0000 L CNN
F 2 "Capacitor_Tantalum_SMD:CP_EIA-3528-21_Kemet-B_Pad1.50x2.35mm_HandSolder" H 6563 1925 50  0001 C CNN
F 3 "~" H 6525 2075 50  0001 C CNN
F 4 "t521b226m25ate100" H 6525 2075 50  0001 C CNN "Field4"
	1    6525 2075
	1    0    0    -1  
$EndComp
$Comp
L Device:CP C72
U 1 1 613DF8FA
P 3875 3950
F 0 "C72" H 3993 3996 50  0000 L CNN
F 1 "22uF 25V" H 3993 3905 50  0000 L CNN
F 2 "Capacitor_Tantalum_SMD:CP_EIA-3528-21_Kemet-B_Pad1.50x2.35mm_HandSolder" H 3913 3800 50  0001 C CNN
F 3 "~" H 3875 3950 50  0001 C CNN
F 4 "t521b226m25ate100" H 3875 3950 50  0001 C CNN "Field4"
	1    3875 3950
	1    0    0    -1  
$EndComp
$Comp
L Device:C C80
U 1 1 614CB4EF
P 5475 5600
F 0 "C80" H 5550 5500 50  0000 C CNN
F 1 "100nF" H 5325 5700 50  0000 C CNN
F 2 "Capacitor_SMD:C_1206_3216Metric_Pad1.42x1.75mm_HandSolder" H 5513 5450 50  0001 C CNN
F 3 "~" H 5475 5600 50  0001 C CNN
	1    5475 5600
	-1   0    0    1   
$EndComp
$Comp
L power:GND #PWR0113
U 1 1 61516787
P 6800 4100
F 0 "#PWR0113" H 6800 3850 50  0001 C CNN
F 1 "GND" H 6805 3927 50  0000 C CNN
F 2 "" H 6800 4100 50  0001 C CNN
F 3 "" H 6800 4100 50  0001 C CNN
	1    6800 4100
	1    0    0    -1  
$EndComp
$Comp
L Device:C C83
U 1 1 61516795
P 6800 3950
F 0 "C83" H 6900 3850 50  0000 C CNN
F 1 "100nF" H 6650 4050 50  0000 C CNN
F 2 "Capacitor_SMD:C_1206_3216Metric_Pad1.42x1.75mm_HandSolder" H 6838 3800 50  0001 C CNN
F 3 "~" H 6800 3950 50  0001 C CNN
	1    6800 3950
	-1   0    0    1   
$EndComp
Wire Wire Line
	5750 1925 5750 3025
$Comp
L power:GND #PWR0114
U 1 1 61519F0A
P 6800 3525
F 0 "#PWR0114" H 6800 3275 50  0001 C CNN
F 1 "GND" H 6805 3352 50  0000 C CNN
F 2 "" H 6800 3525 50  0001 C CNN
F 3 "" H 6800 3525 50  0001 C CNN
	1    6800 3525
	1    0    0    -1  
$EndComp
Text GLabel 6850 3225 2    50   Input ~ 0
V+22
Wire Wire Line
	6850 3225 6800 3225
Text GLabel 6875 3800 2    50   Input ~ 0
V-22
Wire Wire Line
	6875 3800 6800 3800
$Comp
L Device:C C82
U 1 1 61519F18
P 6800 3375
F 0 "C82" H 6850 3175 50  0000 C CNN
F 1 "100nF" H 6650 3475 50  0000 C CNN
F 2 "Capacitor_SMD:C_1206_3216Metric_Pad1.42x1.75mm_HandSolder" H 6838 3225 50  0001 C CNN
F 3 "~" H 6800 3375 50  0001 C CNN
	1    6800 3375
	-1   0    0    1   
$EndComp
Wire Wire Line
	1575 5375 1500 5375
Text GLabel 1550 4800 2    50   Input ~ 0
V+22
$Comp
L power:GND #PWR0115
U 1 1 6152D7EF
P 1500 5675
F 0 "#PWR0115" H 1500 5425 50  0001 C CNN
F 1 "GND" H 1505 5502 50  0000 C CNN
F 2 "" H 1500 5675 50  0001 C CNN
F 3 "" H 1500 5675 50  0001 C CNN
	1    1500 5675
	1    0    0    -1  
$EndComp
$Comp
L Device:C C85
U 1 1 6152D7FD
P 1500 5525
F 0 "C85" H 1600 5425 50  0000 C CNN
F 1 "100nF" H 1350 5625 50  0000 C CNN
F 2 "Capacitor_SMD:C_1206_3216Metric_Pad1.42x1.75mm_HandSolder" H 1538 5375 50  0001 C CNN
F 3 "~" H 1500 5525 50  0001 C CNN
	1    1500 5525
	-1   0    0    1   
$EndComp
Wire Wire Line
	1550 4800 1500 4800
$Comp
L Device:C C84
U 1 1 6152D80F
P 1500 4950
F 0 "C84" H 1550 4750 50  0000 C CNN
F 1 "100nF" H 1350 5050 50  0000 C CNN
F 2 "Capacitor_SMD:C_1206_3216Metric_Pad1.42x1.75mm_HandSolder" H 1538 4800 50  0001 C CNN
F 3 "~" H 1500 4950 50  0001 C CNN
	1    1500 4950
	-1   0    0    1   
$EndComp
$Comp
L power:GND #PWR0116
U 1 1 6152D820
P 1500 5100
F 0 "#PWR0116" H 1500 4850 50  0001 C CNN
F 1 "GND" H 1505 4927 50  0000 C CNN
F 2 "" H 1500 5100 50  0001 C CNN
F 3 "" H 1500 5100 50  0001 C CNN
	1    1500 5100
	1    0    0    -1  
$EndComp
Text GLabel 1575 5375 2    50   Input ~ 0
V-22
Text GLabel 3775 5600 2    50   Input ~ 0
A
Text GLabel 3775 5800 2    50   Input ~ 0
V+22
$Comp
L Connector:Conn_01x01_Female J9
U 1 1 6154E691
P 2675 3375
F 0 "J9" H 2600 3450 50  0000 L CNN
F 1 "-" H 2750 3375 100 0000 L CNN
F 2 "Connector_Pin:Pin_D0.9mm_L10.0mm_W2.4mm_FlatFork" H 2675 3375 50  0001 C CNN
F 3 "~" H 2675 3375 50  0001 C CNN
	1    2675 3375
	-1   0    0    1   
$EndComp
Wire Wire Line
	2875 3375 3075 3375
Wire Wire Line
	3075 3375 3075 3800
Connection ~ 3075 3800
Wire Wire Line
	3075 3800 3425 3800
$Comp
L Connector:Conn_01x01_Female J8
U 1 1 61570DBD
P 2525 2350
F 0 "J8" H 2475 2250 50  0000 L CNN
F 1 "+" H 2550 2350 100 0000 L CNN
F 2 "Connector_Pin:Pin_D0.9mm_L10.0mm_W2.4mm_FlatFork" H 2525 2350 50  0001 C CNN
F 3 "~" H 2525 2350 50  0001 C CNN
	1    2525 2350
	-1   0    0    1   
$EndComp
Wire Wire Line
	2725 2350 2725 1925
Connection ~ 2725 1925
$Comp
L Connector:Conn_01x01_Female J10
U 1 1 6157DB78
P 2725 4025
F 0 "J10" H 2650 4100 50  0000 L CNN
F 1 "cm" H 2800 4025 100 0000 L CNN
F 2 "Connector_Pin:Pin_D0.9mm_L10.0mm_W2.4mm_FlatFork" H 2725 4025 50  0001 C CNN
F 3 "~" H 2725 4025 50  0001 C CNN
	1    2725 4025
	-1   0    0    1   
$EndComp
$Comp
L power:GND #PWR0117
U 1 1 61583062
P 3225 4025
F 0 "#PWR0117" H 3225 3775 50  0001 C CNN
F 1 "GND" H 3230 3852 50  0000 C CNN
F 2 "" H 3225 4025 50  0001 C CNN
F 3 "" H 3225 4025 50  0001 C CNN
	1    3225 4025
	1    0    0    -1  
$EndComp
Wire Wire Line
	2925 4025 3225 4025
Text GLabel 5050 2950 2    50   Input ~ 0
BUF
Wire Wire Line
	5050 2950 5050 3225
Text GLabel 2675 3125 2    50   Input ~ 0
BUF
$Comp
L Connector:Conn_01x01_Female J6
U 1 1 615A0D97
P 2150 3125
F 0 "J6" H 2075 3200 50  0000 L CNN
F 1 "g" H 2225 3125 100 0000 L CNN
F 2 "Connector_Pin:Pin_D0.9mm_L10.0mm_W2.4mm_FlatFork" H 2150 3125 50  0001 C CNN
F 3 "~" H 2150 3125 50  0001 C CNN
	1    2150 3125
	-1   0    0    1   
$EndComp
$Comp
L Connector:Conn_01x01_Female J7
U 1 1 615A4113
P 2150 3325
F 0 "J7" H 2075 3400 50  0000 L CNN
F 1 "g" H 2225 3325 100 0000 L CNN
F 2 "Connector_Pin:Pin_D0.9mm_L10.0mm_W2.4mm_FlatFork" H 2150 3325 50  0001 C CNN
F 3 "~" H 2150 3325 50  0001 C CNN
	1    2150 3325
	-1   0    0    1   
$EndComp
Wire Wire Line
	2350 3325 2350 3125
Wire Wire Line
	2350 3125 2675 3125
Connection ~ 2350 3125
$Comp
L Device:R R13
U 1 1 614669CE
P 5675 4250
F 0 "R13" V 5675 4250 50  0000 C CNN
F 1 "20MΩ" V 5575 4250 50  0000 C CNN
F 2 "Resistor_SMD:R_0805_2012Metric_Pad1.15x1.40mm_HandSolder" V 5605 4250 50  0001 C CNN
F 3 "~" H 5675 4250 50  0001 C CNN
	1    5675 4250
	0    1    1    0   
$EndComp
Wire Wire Line
	6250 3850 6250 4250
Connection ~ 6250 4250
Wire Wire Line
	6250 4250 6250 4675
NoConn ~ 5850 3625
NoConn ~ 5950 3625
NoConn ~ 5850 3025
$Comp
L Device:C C5
U 1 1 613C2623
P 3275 2300
F 0 "C5" V 3200 2175 50  0000 C CNN
F 1 "100nF" V 3425 2325 50  0000 C CNN
F 2 "Capacitor_SMD:C_1206_3216Metric_Pad1.42x1.75mm_HandSolder" H 3313 2150 50  0001 C CNN
F 3 "~" H 3275 2300 50  0001 C CNN
	1    3275 2300
	0    1    1    0   
$EndComp
Wire Wire Line
	2725 1925 3525 1925
$Comp
L power:GND #PWR?
U 1 1 61392A17
P 3000 2300
F 0 "#PWR?" H 3000 2050 50  0001 C CNN
F 1 "GND" H 3005 2127 50  0000 C CNN
F 2 "" H 3000 2300 50  0001 C CNN
F 3 "" H 3000 2300 50  0001 C CNN
	1    3000 2300
	1    0    0    -1  
$EndComp
Wire Wire Line
	3000 2300 3125 2300
$EndSCHEMATC
